<svg version="1.1" xmlns="http://www.w3.org/2000/svg" xmlns:xlink="http://www.w3.org/1999/xlink" x="0px" y="0px"
	 viewBox="-433 255 93 41.5" style="enable-background:new -433 255 93 41.5;" xml:space="preserve">
	<path d="M-431.9,280.3c-0.2,0-0.3,0.1-0.4,0.4l-0.7,5.2l0.7,5.1c0,0.2,0.2,0.4,0.4,0.4c0.2,0,0.3-0.1,0.4-0.4l0,0v0
	c0,0,0,0,0,0l0.8-5.1l-0.8-5.2C-431.6,280.4-431.8,280.3-431.9,280.3z M-428.1,277.4c0-0.2-0.2-0.4-0.4-0.4c-0.2,0-0.4,0.2-0.4,0.4
	c0,0-0.9,8.4-0.9,8.4l0.9,8.2c0,0.2,0.2,0.4,0.4,0.4c0.2,0,0.4-0.2,0.4-0.4l1-8.2L-428.1,277.4z M-413.7,269.7
	c-0.4,0-0.7,0.3-0.7,0.7l-0.7,15.4l0.7,9.9c0,0.4,0.3,0.7,0.7,0.7c0.4,0,0.7-0.3,0.7-0.7v0l0.8-9.9l-0.8-15.4
	C-413,270-413.3,269.7-413.7,269.7z M-421.2,275.1c-0.3,0-0.5,0.2-0.5,0.5l-0.8,10.2l0.8,9.8c0,0.3,0.3,0.5,0.5,0.5
	c0.3,0,0.5-0.2,0.5-0.5l0.9-9.8l-0.9-10.2C-420.7,275.3-420.9,275.1-421.2,275.1z M-406.1,296.4c0.5,0,0.8-0.4,0.9-0.9l0.7-9.8
	l-0.7-20.5c0-0.5-0.4-0.9-0.9-0.9c-0.5,0-0.8,0.4-0.9,0.9c0,0-0.6,20.5-0.6,20.5l0.6,9.8C-407,296-406.6,296.4-406.1,296.4z
	 M-390.6,296.5c0.6,0,1.2-0.5,1.2-1.2v0v0l0.5-9.5l-0.5-23.6c0-0.6-0.5-1.2-1.2-1.2c-0.6,0-1.2,0.5-1.2,1.2l-0.4,23.6
	c0,0,0.4,9.5,0.4,9.5C-391.8,295.9-391.3,296.5-390.6,296.5z M-398.4,296.4c0.6,0,1-0.4,1-1v0l0.6-9.6l-0.6-20.6c0-0.6-0.5-1-1-1
	c-0.6,0-1,0.4-1,1l-0.5,20.6l0.5,9.6C-399.5,296-399,296.4-398.4,296.4z M-417.5,296.3c0.3,0,0.6-0.3,0.6-0.6l0.9-9.9l-0.9-9.4
	c0-0.3-0.3-0.6-0.6-0.6c-0.3,0-0.6,0.3-0.6,0.6l-0.8,9.4l0.8,9.9C-418.1,296.1-417.8,296.3-417.5,296.3z M-424.9,295.8
	c0.2,0,0.4-0.2,0.5-0.5l1-9.5l-1-9.9c0-0.3-0.2-0.5-0.5-0.5c-0.2,0-0.4,0.2-0.5,0.5c0,0-0.9,9.9-0.9,9.9l0.9,9.5
	C-425.3,295.6-425.1,295.8-424.9,295.8z M-394.6,264.9c-0.6,0-1.1,0.5-1.1,1.1l-0.5,19.9l0.5,9.6c0,0.6,0.5,1.1,1.1,1.1
	c0.6,0,1.1-0.5,1.1-1.1v0l0.6-9.6l-0.6-19.9C-393.5,265.3-394,264.9-394.6,264.9z M-409.9,296.4c0.4,0,0.8-0.3,0.8-0.8l0.8-9.9
	l-0.8-18.9c0-0.4-0.4-0.8-0.8-0.8c-0.4,0-0.8,0.3-0.8,0.8c0,0-0.7,18.9-0.7,18.9l0.7,9.9C-410.7,296.1-410.4,296.4-409.9,296.4z
	 M-401.4,295.5L-401.4,295.5l0.7-9.7l-0.7-21.1c0-0.5-0.4-0.9-0.9-0.9c-0.5,0-0.9,0.4-0.9,0.9l-0.6,21.1l0.6,9.7
	c0,0.5,0.4,0.9,0.9,0.9C-401.8,296.4-401.4,296-401.4,295.5L-401.4,295.5z M-351.5,273.6c-1.6,0-3.1,0.3-4.4,0.9
	c-0.9-10.3-9.6-18.4-20.1-18.4c-2.6,0-5.1,0.5-7.3,1.4c-0.9,0.3-1.1,0.7-1.1,1.3v36.3c0,0.7,0.6,1.3,1.2,1.4c0,0,31.5,0,31.7,0
	c6.3,0,11.4-5.1,11.4-11.4C-340,278.7-345.1,273.6-351.5,273.6z M-386.7,258.8c-0.7,0-1.3,0.6-1.3,1.3l-0.5,25.8l0.5,9.4
	c0,0.7,0.6,1.2,1.3,1.2c0.7,0,1.2-0.6,1.3-1.3v0l0.6-9.4l-0.6-25.8C-385.5,259.4-386,258.8-386.7,258.8z"/>
</svg>
